GLEP_1      53969 53971
GLF0_1      -20 20
GLF1_1      -4 4
GLF2_1      0 0
GLF0D_1     -10 10
GLF0D_2     0  0 
GLF0D_3     0  0 
GLTD_1      0   30
GLTD_2      1   1
GLTD_3      1   1
EFAC        0.1 10.0
LOG10_A     -15 -8
GAMMA       2 5
